\relax 
\citation{graphsage}
\citation{GaAN}
\citation{gat}
\citation{infomax}
\citation{gcn}
\citation{Deepwalk}
\citation{ChebNet}
\citation{gcn}
\citation{gat}
\citation{FastGCN}
\citation{Mixhop}
\citation{nlp1}
\citation{nlp2}
\citation{cv1}
\citation{few-shot}
\citation{signal1}
\@writefile{toc}{\contentsline {title}{Improved Graph Neural Network by Filter Preprocessing\unskip {}}{1}\protected@file@percent }
\@writefile{toc}{\authcount {3}}
\@writefile{toc}{\contentsline {author}{First Author \and Second Author \and Third Author}{1}\protected@file@percent }
\@writefile{toc}{\contentsline {section}{\numberline {1}Introduction}{1}\protected@file@percent }
\citation{sgc}
\citation{low-pass}
\citation{signal1}
\citation{signal2}
\@writefile{toc}{\contentsline {section}{\numberline {2}Background}{2}\protected@file@percent }
\@writefile{toc}{\contentsline {subsection}{\numberline {2.1}Graph Spetual Theory}{2}\protected@file@percent }
\citation{gcn}
\citation{sgc}
\@writefile{toc}{\contentsline {subsection}{\numberline {2.2}Graph Convolutional Networks}{3}\protected@file@percent }
\@writefile{toc}{\contentsline {section}{\numberline {3}Filter-Preprocesses graph structure data}{3}\protected@file@percent }
\citation{Chebyshev}
\@writefile{lot}{\contentsline {table}{\numberline {1}{\ignorespaces The frequency response functions can used to design low-pass filter.}}{4}\protected@file@percent }
\newlabel{tab1}{{1}{4}}
\@writefile{lof}{\contentsline {figure}{\numberline {1}{\ignorespaces Images of three frequency response functions in the Table 1}}{4}\protected@file@percent }
\newlabel{fig1}{{1}{4}}
\citation{filter1}
\citation{filter2}
\citation{sgc}
\citation{sgc}
\citation{sgc}
\citation{gcn}
\citation{sgc}
\citation{dataset}
\@writefile{lof}{\contentsline {figure}{\numberline {2}{\ignorespaces Comparison of our method with other methods.'Original' means GNN without preprocess of data.'SGC' means the method proposed in\nobreakspace  {}\cite  {sgc}. 'Our method' means the method proposed in this paper.}}{5}\protected@file@percent }
\newlabel{fig2}{{2}{5}}
\citation{gcn}
\citation{sgc}
\citation{Adam}
\citation{Hyperopt}
\citation{gcn}
\@writefile{toc}{\contentsline {section}{\numberline {4}Experiments}{6}\protected@file@percent }
\@writefile{lot}{\contentsline {table}{\numberline {2}{\ignorespaces Dataset statistics of the citation networks.}}{6}\protected@file@percent }
\newlabel{tab2}{{2}{6}}
\@writefile{lot}{\contentsline {table}{\numberline {3}{\ignorespaces Test accuracy (\%) on citation networks compared with ordinary network.}}{6}\protected@file@percent }
\newlabel{tab3}{{3}{6}}
\citation{oversmooth}
\@writefile{lot}{\contentsline {table}{\numberline {4}{\ignorespaces Test accuracy (\%) on citation networks compared with graph neural network.}}{7}\protected@file@percent }
\newlabel{tab4}{{4}{7}}
\@writefile{toc}{\contentsline {section}{\numberline {5}Theoretical and Experimental analysis}{7}\protected@file@percent }
\citation{sgc}
\@writefile{lof}{\contentsline {figure}{\numberline {3}{\ignorespaces A graph signal on the vertices of the line graph. The height of each balck bar represents the signal value at the vertex. Different colors of vertices means different categories of vertices. Figure a shows examples of raw data. Figure b shows data after smoothing. Figure c shows example of over-smoothness.}}{8}\protected@file@percent }
\newlabel{fig3}{{3}{8}}
\bibcite{graphsage}{1}
\@writefile{lof}{\contentsline {figure}{\numberline {4}{\ignorespaces A figure caption is always placed below the illustration. Please note that short captions are centered, while long ones are justified by the macro package automatically.}}{9}\protected@file@percent }
\newlabel{fig4}{{4}{9}}
\@writefile{toc}{\contentsline {subsection}{\numberline {5.1}Comparison experiment with SGC}{9}\protected@file@percent }
\@writefile{toc}{\contentsline {section}{\numberline {6}Conclusion}{9}\protected@file@percent }
\bibcite{GaAN}{2}
\bibcite{gat}{3}
\bibcite{infomax}{4}
\bibcite{gcn}{5}
\bibcite{FastGCN}{6}
\bibcite{Deepwalk}{7}
\bibcite{ref_article4}{8}
\bibcite{ChebNet}{9}
\bibcite{Mixhop}{10}
\bibcite{gin}{11}
\bibcite{nlp1}{12}
\bibcite{nlp2}{13}
\bibcite{cv1}{14}
\bibcite{few-shot}{15}
\bibcite{signal1}{16}
\bibcite{signal2}{17}
\bibcite{ref_article6}{18}
\bibcite{sgc}{19}
\bibcite{low-pass}{20}
\bibcite{filter1}{21}
\bibcite{filter2}{22}
\bibcite{Chebyshev}{23}
\bibcite{Adam}{24}
\bibcite{Hyperopt}{25}
\bibcite{dataset}{26}
\bibcite{oversmooth}{27}
